…
   Resolving package versions...
      Compat entries added for 
  No Changes to `/bsuscratch/olayemiadeyemi/Jex_SAM/Jexpresso/Project.toml`
  No Changes to `/bsuscratch/olayemiadeyemi/Jex_SAM/Jexpresso/Manifest.toml`
Precompiling project...
    Jexpresso Being precompiled by another process (pid: 0, pidfile: /bsuhome/olayemiadeyemi/.julia/compiled/v1.11/Jexpresso/0w0vX_KOAMo.ji.pidfile)
  32803.0 ms  ✓ Jexpresso
  1 dependency successfully precompiled in 50 seconds. 834 already precompiled.
┌ Info: MPI implementation identified
│   libmpi = "libmpi"
│   version_string = "Open MPI v4.1.2, package: Open MPI root@borah-hn001 Distribution, ident: 4.1.2, repo rev: v4.1.2, Nov 24, 2021\0"
│   impl = "OpenMPI"
│   version = v"4.1.2"
└   abi = "OpenMPI"
┌ Info: MPIPreferences unchanged
│   binary = "system"
│   libmpi = "libmpi"
│   abi = "OpenMPI"
│   mpiexec = "mpiexec"
│   preloads = Any[]
└   preloads_env_switch = nothing
Precompiling project...
    Jexpresso Being precompiled by another machine (hostname: cpu120, pid: 25112, pidfile: /bsuhome/olayemiadeyemi/.julia/compiled/v1.11/Jexpresso/0w0vX_KOAMo.ji.pidfile)
  22808.3 ms  ✓ Jexpresso
  1 dependency successfully precompiled in 31 seconds. 834 already precompiled.
[34m #--------------------------------------------------------------------------------
[39m[34m # Welcome to [31mjexpresso
[34m[39m[34m # A Julia code to solve conservation laws with continuous spectral elements
[39m[34m #--------------------------------------------------------------------------------
[39m[32m # Read inputs dict from /bsuscratch/olayemiadeyemi/Jex_SAM/Jexpresso/problems/equations/CompEuler/vf_micro/user_inputs.jl ... 
[39m[33m┌[0m[33m──────────────────────[0m[33m┬[0m[33m──────────────────────────────[0m[33m┐[0m
[33m│[0m[1m                 Keys [0m[33m│[0m[1m                       Values [0m[33m│[0m
[33m│[0m[90m               Symbol [0m[33m│[0m[90m                          Any [0m[33m│[0m
[33m├[0m[33m──────────────────────[0m[33m┼[0m[33m──────────────────────────────[0m[33m┤[0m
[33m│[0m        SOL_VARS_TYPE [33m│[0m                      TOTAL() [33m│[0m
[33m│[0m              a_mount [33m│[0m                      10000.0 [33m│[0m
[33m│[0m              c_mount [33m│[0m                          0.0 [33m│[0m
[33m│[0m                 case [33m│[0m                          rtb [33m│[0m
[33m│[0m diagnostics_at_times [33m│[0m            0.0:600.0:43200.0 [33m│[0m
[33m│[0m          filter_type [33m│[0m                          erf [33m│[0m
[33m│[0m        gmsh_filename [33m│[0m ./meshes/gmsh_grids/vf_5.msh [33m│[0m
[33m│[0m              h_mount [33m│[0m                        100.0 [33m│[0m
[33m│[0m  interpolation_nodes [33m│[0m                          lgl [33m│[0m
[33m│[0m              lfilter [33m│[0m                         true [33m│[0m
[33m│[0m               lmoist [33m│[0m                         true [33m│[0m
[33m│[0m         loutput_pert [33m│[0m                         true [33m│[0m
[33m│[0m    loverwrite_output [33m│[0m                         true [33m│[0m
[33m│[0m              lprecip [33m│[0m                         true [33m│[0m
[33m│[0m           lread_gmsh [33m│[0m                         true [33m│[0m
[33m│[0m          ⋮           [33m│[0m              ⋮               [33m│[0m
[33m└[0m[33m──────────────────────[0m[33m┴[0m[33m──────────────────────────────[0m[33m┘[0m
[36m                                        17 rows omitted[0m
…
