ERROR: Unable to locate a modulefile for 'lua/5.3.5'
   Resolving package versions...
      Compat entries added for 
  No Changes to `/bsuscratch/olayemiadeyemi/Jex_SAM/Jexpresso/Project.toml`
  No Changes to `/bsuscratch/olayemiadeyemi/Jex_SAM/Jexpresso/Manifest.toml`
Precompiling project...
  14449.6 ms  ? Jexpresso
┌ Info: MPI implementation identified
│   libmpi = "libmpi"
│   version_string = "Open MPI v4.1.2, package: Open MPI root@borah-hn001 Distribution, ident: 4.1.2, repo rev: v4.1.2, Nov 24, 2021\0"
│   impl = "OpenMPI"
│   version = v"4.1.2"
└   abi = "OpenMPI"
┌ Info: MPIPreferences unchanged
│   binary = "system"
│   libmpi = "libmpi"
│   abi = "OpenMPI"
│   mpiexec = "mpiexec"
│   preloads = Any[]
└   preloads_env_switch = nothing
Precompiling project...
    Jexpresso Being precompiled by another machine (hostname: cpu114, pid: 220245, pidfile: /bsuhome/olayemiadeyemi/.julia/compiled/v1.11/Jexpresso/0w0vX_KOAMo.ji.pidfile)
  23085.0 ms  ✓ Jexpresso
  1 dependency successfully precompiled in 32 seconds. 834 already precompiled.
[34m #--------------------------------------------------------------------------------
[39m[34m # Welcome to [31mjexpresso
[34m[39m[34m # A Julia code to solve conservation laws with continuous spectral elements
[39m[34m #--------------------------------------------------------------------------------
[39m[32m # Read inputs dict from /bsuscratch/olayemiadeyemi/Jex_SAM/Jexpresso/problems/equations/CompEuler/vf_no_micro/user_inputs.jl ... 
[39m[33m┌[0m[33m────────────────────────────[0m[33m┬[0m[33m──────────────────────────────────────────────────[0m
[33m│[0m[1m                       Keys [0m[33m│[0m[1m                                                [0m ⋯
[33m│[0m[90m                     Symbol [0m[33m│[0m[90m                                                [0m ⋯
[33m├[0m[33m────────────────────────────[0m[33m┼[0m[33m──────────────────────────────────────────────────[0m
[33m│[0m                       case [33m│[0m                                                 ⋯
[33m│[0m       diagnostics_at_times [33m│[0m                                                 ⋯
[33m│[0m                filter_type [33m│[0m                                                 ⋯
[33m│[0m              gmsh_filename [33m│[0m                                                 ⋯
[33m│[0m        interpolation_nodes [33m│[0m                                                 ⋯
[33m│[0m            ivisc_equations [33m│[0m                                                 ⋯
[33m│[0m                    lfilter [33m│[0m                                                 ⋯
[33m│[0m               loutput_pert [33m│[0m                                                 ⋯
[33m│[0m          loverwrite_output [33m│[0m                                                 ⋯
[33m│[0m                 lread_gmsh [33m│[0m                                                 ⋯
[33m│[0m                    lsource [33m│[0m                                                 ⋯
[33m│[0m                      lvisc [33m│[0m                                                 ⋯
[33m│[0m                       mu_x [33m│[0m                                                 ⋯
[33m│[0m                       mu_y [33m│[0m                                                 ⋯
[33m│[0m                        nop [33m│[0m                                                 ⋯
[33m│[0m             ⋮              [33m│[0m                                                 ⋱
[33m└[0m[33m────────────────────────────[0m[33m┴[0m[33m──────────────────────────────────────────────────[0m
[36m                                                     1 column and 9 rows omitted[0m
…
